<mxfile host="app.diagrams.net" modified="2024-06-13T07:03:06.876Z" agent="Mozilla/5.0 (Windows NT 10.0; Win64; x64) AppleWebKit/537.36 (KHTML, like Gecko) Chrome/125.0.0.0 Safari/537.36" etag="PHAN2yvsomxn9OxElt9H" version="24.5.1" type="device">
  <diagram name="Page-1" id="ZGWH-MytxlmM_PgmYP82">
    <mxGraphModel dx="1674" dy="746" grid="1" gridSize="10" guides="1" tooltips="1" connect="1" arrows="1" fold="1" page="1" pageScale="1" pageWidth="827" pageHeight="1169" math="0" shadow="0">
      <root>
        <mxCell id="0" />
        <mxCell id="1" parent="0" />
        <mxCell id="FYeFdYXDySmkNKL0rmAl-2" value="" style="rounded=0;whiteSpace=wrap;html=1;" parent="1" vertex="1">
          <mxGeometry x="530" y="40" width="370" height="110" as="geometry" />
        </mxCell>
        <mxCell id="FYeFdYXDySmkNKL0rmAl-5" value="&lt;p style=&quot;margin-top: 0px;&quot;&gt;&lt;span style=&quot;background-color: initial;&quot;&gt;Hero Category&lt;br&gt;&lt;/span&gt;&lt;/p&gt;&lt;p&gt;- Name: String&lt;/p&gt;&lt;p&gt;- Passive: String&lt;/p&gt;" style="text;html=1;whiteSpace=wrap;overflow=hidden;rounded=0;" parent="1" vertex="1">
          <mxGeometry x="540" y="50" width="230" height="90" as="geometry" />
        </mxCell>
        <mxCell id="FYeFdYXDySmkNKL0rmAl-6" value="" style="rounded=0;whiteSpace=wrap;html=1;" parent="1" vertex="1">
          <mxGeometry x="44" y="40" width="370" height="550" as="geometry" />
        </mxCell>
        <mxCell id="FYeFdYXDySmkNKL0rmAl-8" value="&lt;p style=&quot;margin-top: 0px;&quot;&gt;Hero&lt;/p&gt;&lt;p style=&quot;margin-top: 0px;&quot;&gt;- Name: String&lt;/p&gt;&lt;p style=&quot;margin-top: 0px;&quot;&gt;- Birthday: Date&lt;/p&gt;&lt;p style=&quot;margin-top: 0px;&quot;&gt;- Weapon: String&lt;/p&gt;&lt;p style=&quot;margin-top: 0px;&quot;&gt;- Abilities: Array&amp;lt;Ability&amp;gt;&lt;/p&gt;" style="text;html=1;whiteSpace=wrap;overflow=hidden;rounded=0;" parent="1" vertex="1">
          <mxGeometry x="54" y="50" width="320" height="130" as="geometry" />
        </mxCell>
        <mxCell id="FYeFdYXDySmkNKL0rmAl-14" value="" style="rounded=0;whiteSpace=wrap;html=1;" parent="1" vertex="1">
          <mxGeometry x="74" y="180" width="290" height="150" as="geometry" />
        </mxCell>
        <mxCell id="FYeFdYXDySmkNKL0rmAl-9" value="&lt;p style=&quot;margin-top: 0px;&quot;&gt;Ability&lt;/p&gt;&lt;p style=&quot;margin-top: 0px;&quot;&gt;- Name: String&lt;/p&gt;&lt;p style=&quot;margin-top: 0px;&quot;&gt;- Description: String&lt;/p&gt;&lt;p style=&quot;margin-top: 0px;&quot;&gt;- isPassive: boolean&lt;/p&gt;&lt;p style=&quot;margin-top: 0px;&quot;&gt;- isUltimate: boolean&lt;/p&gt;" style="text;html=1;whiteSpace=wrap;overflow=hidden;rounded=0;" parent="1" vertex="1">
          <mxGeometry x="84" y="190" width="270" height="130" as="geometry" />
        </mxCell>
        <mxCell id="FYeFdYXDySmkNKL0rmAl-15" value="" style="rounded=0;whiteSpace=wrap;html=1;" parent="1" vertex="1">
          <mxGeometry x="1440" y="40" width="370" height="230" as="geometry" />
        </mxCell>
        <mxCell id="FYeFdYXDySmkNKL0rmAl-17" value="&lt;p style=&quot;margin-top: 0px;&quot;&gt;Map Type&lt;/p&gt;&lt;p style=&quot;margin-top: 0px;&quot;&gt;- Name: String&lt;/p&gt;&lt;p style=&quot;margin-top: 0px;&quot;&gt;- Description: String&lt;/p&gt;&lt;p style=&quot;margin-top: 0px;&quot;&gt;- isAsynchron: boolean&lt;/p&gt;" style="text;html=1;whiteSpace=wrap;overflow=hidden;rounded=0;" parent="1" vertex="1">
          <mxGeometry x="1450" y="50" width="230" height="110" as="geometry" />
        </mxCell>
        <mxCell id="FYeFdYXDySmkNKL0rmAl-18" value="&lt;p style=&quot;margin-top: 0px;&quot;&gt;- Category: ObjectId&lt;/p&gt;&lt;p style=&quot;margin-top: 0px;&quot;&gt;&lt;span style=&quot;background-color: initial;&quot;&gt;- Hero is good on Map: Array &amp;lt;ObjectId&amp;gt;&lt;/span&gt;&lt;/p&gt;" style="text;html=1;whiteSpace=wrap;overflow=hidden;rounded=0;" parent="1" vertex="1">
          <mxGeometry x="54" y="340" width="236" height="60" as="geometry" />
        </mxCell>
        <mxCell id="FYeFdYXDySmkNKL0rmAl-21" value="" style="endArrow=none;html=1;rounded=0;entryX=0;entryY=0.5;entryDx=0;entryDy=0;" parent="1" target="FYeFdYXDySmkNKL0rmAl-2" edge="1">
          <mxGeometry width="50" height="50" relative="1" as="geometry">
            <mxPoint x="390" y="350" as="sourcePoint" />
            <mxPoint x="610" y="390" as="targetPoint" />
          </mxGeometry>
        </mxCell>
        <mxCell id="FYeFdYXDySmkNKL0rmAl-25" value="" style="rounded=0;whiteSpace=wrap;html=1;" parent="1" vertex="1">
          <mxGeometry x="960" y="40" width="370" height="440" as="geometry" />
        </mxCell>
        <mxCell id="FYeFdYXDySmkNKL0rmAl-26" value="&lt;p style=&quot;margin-top: 0px;&quot;&gt;Map&lt;/p&gt;&lt;p style=&quot;margin-top: 0px;&quot;&gt;- Name: String&lt;/p&gt;&lt;p style=&quot;margin-top: 0px;&quot;&gt;- Location: String&lt;/p&gt;&lt;p style=&quot;margin-top: 0px;&quot;&gt;- Type: ObjectId&lt;/p&gt;" style="text;html=1;whiteSpace=wrap;overflow=hidden;rounded=0;" parent="1" vertex="1">
          <mxGeometry x="980" y="61" width="230" height="119" as="geometry" />
        </mxCell>
        <mxCell id="FYeFdYXDySmkNKL0rmAl-30" value="" style="endArrow=none;html=1;rounded=0;exitX=1;exitY=0.75;exitDx=0;exitDy=0;entryX=0;entryY=0.5;entryDx=0;entryDy=0;" parent="1" source="FYeFdYXDySmkNKL0rmAl-26" target="FYeFdYXDySmkNKL0rmAl-15" edge="1">
          <mxGeometry width="50" height="50" relative="1" as="geometry">
            <mxPoint x="1310" y="217.5" as="sourcePoint" />
            <mxPoint x="1170" y="300" as="targetPoint" />
          </mxGeometry>
        </mxCell>
        <mxCell id="n5mmIAx_a0KWxu0fB5cA-15" value="" style="endArrow=none;html=1;rounded=0;exitX=0;exitY=0.5;exitDx=0;exitDy=0;entryX=1;entryY=0.75;entryDx=0;entryDy=0;" parent="1" target="FYeFdYXDySmkNKL0rmAl-18" edge="1">
          <mxGeometry width="50" height="50" relative="1" as="geometry">
            <mxPoint x="959" y="260" as="sourcePoint" />
            <mxPoint x="510" y="360" as="targetPoint" />
          </mxGeometry>
        </mxCell>
      </root>
    </mxGraphModel>
  </diagram>
</mxfile>
